<!-- A ground plane -->
<include>
 <uri>model://my1stmodel</uri>
</include>
In the end, the final content of the file would be:

<?xml version="1.0" ?>

<sdf version="1.5">
	<world name="default">
		<!-- A global light source -->
		<include>
			<uri>model://sun</uri>
		</include>

		<!-- A ground plane -->
		<include>
			<uri>model://ground_plane</uri>
		</include>

        <!-- Our custom model -->
		<include>
			<uri>model://model1</uri>
		</include>
        
	</world>
</sdf>
